Lab_week8/lab_8th/CLA_adder/CLA_adder.sim/sim_1/behav/xsim/simulate.log
Time resolution is 1 ps
A = 0000, B = 0000, Cin = 0
Sum = xxxx, Cout = x
A = 0001, B = 0001, Cin = 1
Sum = 0011, Cout = x
A = 0010, B = 0010, Cin = 0
Sum = 0100, Cout = x
A = 0011, B = 0011, Cin = 1
Sum = 0111, Cout = 1
A = 0100, B = 0100, Cin = 0
Sum = 1000, Cout = x
A = 0101, B = 0101, Cin = 1
Sum = 1011, Cout = 1
A = 0110, B = 0110, Cin = 0
Sum = 1100, Cout = 1
A = 0111, B = 0111, Cin = 1
Sum = 1111, Cout = 1
A = 1000, B = 1000, Cin = 0
Sum = 0000, Cout = x
A = 1001, B = 1001, Cin = 1
Sum = 0011, Cout = 1
A = 1010, B = 1010, Cin = 0
Sum = 0100, Cout = 1
A = 1011, B = 1011, Cin = 1
Sum = 0111, Cout = 1
A = 1100, B = 1100, Cin = 0
Sum = 1000, Cout = 1
A = 1101, B = 1101, Cin = 1
Sum = 1011, Cout = 1
A = 1110, B = 1110, Cin = 0
Sum = 1100, Cout = 1
A = 1111, B = 1111, Cin = 1
Sum = 1111, Cout = 1
$finish called at time : 160 ns : File "C:/Users/User/Desktop/FPGA/Lab_Second/lab_th/CLA_adder/CLA_adder.srcs/sim_1/new/CLA_TestBench.v" Line 59
